{"_links":{"self":{"href":"http://127.0.0.1:8000/citydynamics/api/drukteindex/?op=2017-10-13-23-00-00&format=json"},"next":{"href":"http://127.0.0.1:8000/citydynamics/api/drukteindex/?format=json&op=2017-10-13-23-00-00&page=2"},"previous":{"href":null}},"count":99,"results":{"type":"FeatureCollection","features":[{"type":"Feature","geometry":"0103000020E61000000100000005000000B0E2546B6186134077D7D9907F2E4A40CDE49B6D6E9C134001F22554702E4A40800D8810579E134086AE44A0FA2D4A408E01D9EBDD8F1340ECA17DACE02D4A40B0E2546B6186134077D7D9907F2E4A40","properties":{"naam":"De Weteringschans","vollcode":"A07","drukte_index":0.0234066655100517}},{"type":"Feature","geometry":"0103000020E610000001000000050000009487855AD33C1340C8B260E28F304A40AB251DE5604613405069C4CC3E314A4028E8F692C6581340906802452C304A406D1FF296AB3F13403B4F3C670B2E4A409487855AD33C1340C8B260E28F304A40","properties":{"naam":"Slotermeer-Zuidwest","vollcode":"F77","drukte_index":0.139460442320578}},{"type":"Feature","geometry":"0103000020E61000000100000005000000AAB69BE09BA61340C9E02879752C4A40BA9F53909F9D1340267156444D2C4A405E81E84999941340ADDEE176682C4A4069C6A2E9ECA413409757AEB7CD2C4A40AAB69BE09BA61340C9E02879752C4A40","properties":{"naam":"IJselbuurt","vollcode":"K53","drukte_index":0.00980011528286684}},{"type":"Feature","geometry":"0103000020E610000001000000050000008736001B106113407497C459112D4A40E350BF0B5B631340D717096D392B4A401B82E3326E5A13403C4B9011502B4A40DE567A6D3656134060C8EA56CF2D4A408736001B106113407497C459112D4A40","properties":{"naam":"Westlandgracht","vollcode":"F87","drukte_index":0.0561195452681355}},{"type":"Feature","geometry":"0103000020E6100000010000000500000082F92B64AE8C1340B000A60C1C2E4A40800D8810579E134086AE44A0FA2D4A404A0856D5CB9F13400C7558E1962D4A40783BC269C18B13400645F300162D4A4082F92B64AE8C1340B000A60C1C2E4A40","properties":{"naam":"Oude Pijp","vollcode":"K24","drukte_index":0.029433779808867}},{"type":"Feature","geometry":"0103000020E610000001000000050000001B65FD66626A1340CF9F36AAD32D4A40B64B1B0E4B6313402827DA55482B4A4040A6B5696C5F1340737973B8562B4A4070253B360261134017B5FB55802D4A401B65FD66626A1340CF9F36AAD32D4A40","properties":{"naam":"Hoofddorppleinbuurt","vollcode":"K44","drukte_index":0.0308856923974925}},{"type":"Feature","geometry":"0103000020E61000000100000005000000A1D79FC4E77E134050FEEE1D352E4A4082F92B64AE8C1340B000A60C1C2E4A4035EB8CEF8B8B13402EC901BB9A2C4A40B3D2A414747B13408CF337A1102D4A40A1D79FC4E77E134050FEEE1D352E4A40","properties":{"naam":"Museumkwartier","vollcode":"K47","drukte_index":0.0744107076972799}},{"type":"Feature","geometry":"0103000020E61000000100000005000000FA60191BBAA91340CC28965B5A2D4A40E4D9E55B1FA61340CEA3E2FF8E2C4A40800D8810579E134086AE44A0FA2D4A40F1BBE9961DA213403FAA61BF272E4A40FA60191BBAA91340CC28965B5A2D4A40","properties":{"naam":"Weesperzijde","vollcode":"M27","drukte_index":0.014956875013462}},{"type":"Feature","geometry":"0103000020E61000000100000005000000D2393FC571B0134044D4449F8F2E4A40FA60191BBAA91340CC28965B5A2D4A40F1BBE9961DA213403FAA61BF272E4A40E564E25641AC13405F24B4E55C2E4A40D2393FC571B0134044D4449F8F2E4A40","properties":{"naam":"Oosterparkbuurt","vollcode":"M28","drukte_index":0.046991323994471}},{"type":"Feature","geometry":"0103000020E610000001000000050000009A249694BBAF13405837DE1D192D4A40412E71E481A8134037E0F3C3082D4A406F83DA6FEDB4134006B13385CE2D4A40880E812381B61340B58B69A67B2D4A409A249694BBAF13405837DE1D192D4A40","properties":{"naam":"Transvaalbuurt","vollcode":"M30","drukte_index":0.0123152706720194}},{"type":"Feature","geometry":"0103000020E6100000010000000A000000C9772975C9A81340E3FF8EA850334A4096986725ADA81340C7BC8E3864334A4069AD68739CAB1340056EDDCD53334A40499EEBFB70B013406EC328081E334A40D80B056C07B31340EE5EEE93A3324A403E0455A357B31340E4F0492712324A40E813799274BD1340E8D66B7A50324A40B7B3AF3C48CF13407217618A72314A40F5824F73F2B213402F50526001324A40C9772975C9A81340E3FF8EA850334A40","properties":{"naam":"Nieuwendammerdijk/Buiksloterdijk","vollcode":"N64","drukte_index":0.0}},{"type":"Feature","geometry":"0103000020E610000001000000050000006A8995D1C8971340016A6AD95A354A40B3E6C75F5A74134080D767CEFA344A40D32D3BC43F6C13404BC972124A354A40BB44F5D6C076134078094E7D20374A406A8995D1C8971340016A6AD95A354A40","properties":{"naam":"Oostzanerwerf","vollcode":"N66","drukte_index":0.168486049197858}},{"type":"Feature","geometry":"0103000020E61000000100000005000000569FABADD8BF134078616BB6F2304A40143C855CA9D713401F10E84CDA304A403E78EDD286D31340FD6CE4BA292F4A402B85402E71A41340A1293BFDA0304A40569FABADD8BF134078616BB6F2304A40","properties":{"naam":"Oostelijk Havengebied","vollcode":"M33","drukte_index":0.0786113847564073}},{"type":"Feature","geometry":"0103000020E61000000100000005000000C21550A8A7AF13408A5759DB14334A4064EB19C231AB1340598638D6C5314A40B6679604A89913408E041A6CEA304A4018601F9DBAA21340F436363B52334A40C21550A8A7AF13408A5759DB14334A40","properties":{"naam":"Volewijck","vollcode":"N60","drukte_index":0.0611477128438594}},{"type":"Feature","geometry":"0103000020E610000001000000050000008C82E0F1EDAD1340817A336ABE304A4052103CBEBD9B134009336DFFCA304A40C21550A8A7AF13408A5759DB14334A401904560E2DC21340BEA25BAFE9314A408C82E0F1EDAD1340817A336ABE304A40","properties":{"naam":"IJplein/Vogelbuurt","vollcode":"N61","drukte_index":0.0488335137731306}},{"type":"Feature","geometry":"0103000020E61000000100000005000000E813799274BD1340E8D66B7A50324A40917EFB3A70CE1340DD9733DB15324A40B7B3AF3C48CF1340C35A7C0A80314A4081B4FF01D6CA134069A7E67283314A40E813799274BD1340E8D66B7A50324A40","properties":{"naam":"Tuindorp Nieuwendam","vollcode":"N62","drukte_index":0.0135125707939998}},{"type":"Feature","geometry":"0103000020E61000000100000006000000BD18CA8976E51340E99D0AB8E72F4A40DAA4A2B1F6B71340BC218D0A9C344A40317DAF2138EE134078962023A0364A409B5775560B4C1440C7EBC1A4F8344A400458E4D70F511440D4BA0D6ABF314A40BD18CA8976E51340E99D0AB8E72F4A40","properties":{"naam":"Waterland","vollcode":"N73","drukte_index":0.92220806875051}},{"type":"Feature","geometry":"0103000020E6100000010000000500000013AE47E17AC41340023FAA61BF294A4043A9BD88B6D3134056B77A4E7A294A401C1D5723BBE213406E2A52616C274A4040868E1D54D213400C1AFA27B8264A4013AE47E17AC41340023FAA61BF294A40","properties":{"naam":"Bijlmer Centrum (D,F,H)","vollcode":"T93","drukte_index":0.136782939335901}},{"type":"Feature","geometry":"0103000020E610000001000000050000005436ACA92C0A144011A7936C75274A40E38BF67821FD1340723271AB20284A40276A696E851014406C94F59B89294A40B7D4415E0F1614401EB935E9B6264A405436ACA92C0A144011A7936C75274A40","properties":{"naam":"Driemond","vollcode":"T98","drukte_index":0.24394810492134}},{"type":"Feature","geometry":"0103000020E61000000100000005000000BBD6DEA7AA901340C74ACCB3922C4A40B22B2D23F59E13404677103B532C4A40438A01124DA01340AAB2EF8AE02B4A40021077F52A921340D576137CD32A4A40BBD6DEA7AA901340C74ACCB3922C4A40","properties":{"naam":"Scheldebuurt","vollcode":"K52","drukte_index":0.0459469413766583}},{"type":"Feature","geometry":"0103000020E610000001000000050000006C43C5387FB31340D7DAFB54152E4A40F373435376BA1340BC546CCCEB2E4A40B08C0DDDECBF13407BC03C64CA2D4A40880E812381B61340B58B69A67B2D4A406C43C5387FB31340D7DAFB54152E4A40","properties":{"naam":"Dapperbuurt","vollcode":"M29","drukte_index":0.0217310025719503}},{"type":"Feature","geometry":"0103000020E610000001000000060000007DAD4B8DD0EF13405EB9DE36532F4A4055F833BC59E31340DC2E34D7692E4A408F8B6A11510C144041D2A755F42B4A40DEE4B7E864D91340B0A371A8DF2D4A40A7AE7C96E7D11340BE50C07630304A407DAD4B8DD0EF13405EB9DE36532F4A40","properties":{"naam":"Zeeburgereiland/Nieuwe Diep","vollcode":"M34","drukte_index":0.355776343522797}},{"type":"Feature","geometry":"0103000020E610000001000000050000004148163081AB134073F7393E5A2E4A40800D8810579E134086AE44A0FA2D4A400F0D8B51D79A134053CC41D0D12E4A40317C444C89A41340C4B29943522F4A404148163081AB134073F7393E5A2E4A40","properties":{"naam":"Weesperbuurt/Plantage","vollcode":"A08","drukte_index":0.0273406210079503}},{"type":"Feature","geometry":"0103000020E61000000100000005000000E6B2D1393FA513402BFBAE08FE2F4A406EB88FDC9AA41340D9243FE257304A409642209738B213404C35B39602304A4030630AD638BB1340E6B2D1393F2F4A40E6B2D1393FA513402BFBAE08FE2F4A40","properties":{"naam":"Oostelijke Eilanden/Kadijken","vollcode":"A09","drukte_index":0.0424617724992603}},{"type":"Feature","geometry":"0103000020E61000000100000006000000A0A86C58533913406D91B41B7D324A40A4A99ECC3FEA1240DF12807F4A334A402AC423F1F2F41240D13DEB1A2D374A40E44C13B69F6C134034BE2F2E55354A4009FEB7921D8B134026E318C91E334A40A0A86C58533913406D91B41B7D324A40","properties":{"naam":"Westelijk Havengebied","vollcode":"B10","drukte_index":1.0}}]}}